PetscInt warp_basis_nbasis_P2 = 6;
PetscReal warp_basis_coords_P2[] = {
  -1.000000000000e+00 , -1.000000000000e+00, 
  +0.000000000000e+00 , -1.000000000000e+00, 
  +1.000000000000e+00 , -1.000000000000e+00, 
  -1.000000000000e+00 , +0.000000000000e+00, 
  +0.000000000000e+00 , +0.000000000000e+00, 
  -1.000000000000e+00 , +1.000000000000e+00 
};
